# Blender v2.78 (sub 0) OBJ File: ''
# www.blender.org
mtllib V.mtl
o Cube_Cube.001
v -1.000000 0.385291 4.303307
v -1.000000 0.422827 0.227188
v -1.000000 1.539677 0.227188
v 1.000000 0.385291 4.303307
v 1.000000 0.422827 0.227188
v 1.000000 1.539677 0.227188
v -1.000000 -1.589598 -1.219462
v -1.000000 -2.232661 -1.311917
v 1.000000 -2.232661 -1.311917
v 1.000000 -1.589598 -1.219462
v -1.000000 1.474463 -2.226301
v 1.000000 1.474463 -2.226301
vn -1.0000 0.0000 0.0000
vn 0.0000 0.4196 -0.9077
vn 0.0000 -1.0000 -0.0092
vn 0.0000 0.9622 0.2725
vn 0.0000 0.3122 0.9500
vn 1.0000 0.0000 0.0000
vn 0.0000 -0.5015 0.8652
vn 0.0000 -0.2395 -0.9709
usemtl None
s off
f 2//3 5//3 4//3 1//3
f 3//1 7//1 11//1 8//1 2//1 1//1
f 3//2 6//2 10//2 7//2
f 6//4 3//4 1//4 4//4
f 7//5 10//5 12//5 11//5
f 9//6 12//6 10//6 6//6 4//6 5//6
f 5//7 2//7 8//7 9//7
f 9//8 8//8 11//8 12//8
